;*************************************************************
;*************************************************************
;**                                                         **
;**                 LONG INTEGER + ...                      **
;**                 ... + LONG INTEGER                      **
;**                                                         **
;*************************************************************
;*************************************************************
In: FD=0 FI=0 SD=0 RM=0 IM=2compl SS=4 WS=64
Func: fnAdd



;=======================================
; Long Integer + Long Integer --> Long Integer
;=======================================
In:  WS=64 SL=0 RY=LonI:"125455431202845619505847489630102030405" RX=LonI:"5424563354566542698521412502251020304050"
Out: EC=0 FI=0 SL=1 RL=LonI:"5424563354566542698521412502251020304050" RX=LonI:"5550018785769388318027259991881122334455"



;=======================================
; Long Integer + Real16 --> Real16
;=======================================
In:  SL=0 NCSD=16 RY=LonI:"12545543120284569505847489630102030405" RX=Re16:"123.456"
Out: EC=0 FI=0 SL=1 RL=Re16:"123.456" RX=Re16:"12545543120284569505847489630102030528.456"

; Correct rounding test
In:  SL=0 NCSD=16 RY=LonI:"10000000000004567" RX=Re16:"1000000000000456.0"
Out: EC=0 FI=0 SL=1 RL=Re16:"1000000000000456.0" RX=Re16:"11000000000005023.0"

In:  AM=DEG FI=0 SL=0 NCSD=16 RY=LonI:"2" RX=Re16:"123.4":DEG
Out: EC=0 FI=0 SL=1 RL=Re16:"123.4":DEG RX=Re16:"125.4":DEG

In:  AM=DMS FI=0 SL=0 RY=LonI:"2" RX=Re16:"123.4":DEG
Out: EC=0 FI=0 SL=1 RL=Re16:"123.4":DEG RX=Re16:"125.24":DMS

In:  AM=GRAD FI=0 SL=0 RY=LonI:"2" RX=Re16:"123.4":DEG
Out: EC=0 FI=0 SL=1 RL=Re16:"123.4":DEG RX=Re16:"139.11111111111111111111111111111111111111111111111111111111111":GRAD

In:  AM=RAD FI=0 SL=0 RY=LonI:"2" RX=Re16:"123.4":DEG
Out: EC=0 FI=0 SL=1 RL=Re16:"123.4":DEG RX=Re16:"4.1537362969610026979238344083149480883885039104604892128239342":RAD

In:  AM=MULTPI FI=0 SL=0 RY=LonI:"2" RX=Re16:"123.4":DEG
Out: EC=0 FI=0 SL=1 RL=Re16:"123.4":DEG RX=Re16:"2.6855555555555555555555555555555555555555555555555555555555556":MULTPI

In:  AM=DEG FI=0 SL=0 RY=LonI:"2" RX=Re16:"123.453099":DMS
Out: EC=0 FI=0 SL=1 RL=Re16:"123.453099":DMS RX=Re16:"125.75860833333333333333333333333333333333333333333333333333333":DEG

In:  AM=DMS FI=0 SL=0 RY=LonI:"2" RX=Re16:"123.453099":DMS
Out: EC=0 FI=0 SL=1 RL=Re16:"123.453099":DMS RX=Re16:"125.453099":DMS

In:  AM=GRAD FI=0 SL=0 RY=LonI:"2" RX=Re16:"123.453099":DMS
Out: EC=0 FI=0 SL=1 RL=Re16:"123.453099":DMS RX=Re16:"139.50956481481481481481481481481481481481481481481481481481482":GRAD

In:  AM=RAD FI=0 SL=0 RY=LonI:"2" RX=Re16:"123.453099":DMS
Out: EC=0 FI=0 SL=1 RL=Re16:"123.453099":DMS RX=Re16:"4.1599951931027586966474808403849789609633028359587905521199534":RAD

In:  AM=MULTPI FI=0 SL=0 RY=LonI:"2" RX=Re16:"123.453099":DMS
Out: EC=0 FI=0 SL=1 RL=Re16:"123.453099":DMS RX=Re16:"2.6875478240740740740740740740740740740740740740740740740740741":MULTPI

In:  AM=DEG FI=0 SL=0 RY=LonI:"2" RX=Re16:"123.453099":GRAD
Out: EC=0 FI=0 SL=1 RL=Re16:"123.453099":GRAD RX=Re16:"113.1077891":DEG

In:  AM=DMS FI=0 SL=0 RY=LonI:"2" RX=Re16:"123.453099":GRAD
Out: EC=0 FI=0 SL=1 RL=Re16:"123.453099":GRAD RX=Re16:"113.062804076":DMS

In:  AM=GRAD FI=0 SL=0 RY=LonI:"2" RX=Re16:"123.453099":GRAD
Out: EC=0 FI=0 SL=1 RL=Re16:"123.453099":GRAD RX=Re16:"125.453099":GRAD

In:  AM=RAD FI=0 SL=0 RY=LonI:"2" RX=Re16:"123.453099":GRAD
Out: EC=0 FI=0 SL=1 RL=Re16:"123.453099":GRAD RX=Re16:"3.9391967444064672502872966069884970711678934469041273852614806":RAD

In:  AM=MULTPI FI=0 SL=0 RY=LonI:"2" RX=Re16:"123.453099":GRAD
Out: EC=0 FI=0 SL=1 RL=Re16:"123.453099":GRAD RX=Re16:"2.617265495":MULTPI

In:  AM=DEG FI=0 SL=0 RY=LonI:"2" RX=Re16:"3.453099789":RAD
Out: EC=0 FI=0 SL=1 RL=Re16:"3.453099789":RAD RX=Re16:"199.84804414721508495930200338417589789863839683673856829633339":DEG

In:  AM=DMS FI=0 SL=0 RY=LonI:"2" RX=Re16:"3.453099789":RAD
Out: EC=0 FI=0 SL=1 RL=Re16:"3.453099789":RAD RX=Re16:"199.50529589299743058534872121830332324350982286122588458668002":DMS

In:  AM=GRAD FI=0 SL=0 RY=LonI:"2" RX=Re16:"3.453099789":RAD
Out: EC=0 FI=0 SL=1 RL=Re16:"3.453099789":RAD RX=Re16:"221.83116016357231662144667042686210877626488537415396477370377":GRAD

In:  AM=RAD FI=0 SL=0 RY=LonI:"2" RX=Re16:"3.453099789":RAD
Out: EC=0 FI=0 SL=1 RL=Re16:"3.453099789":RAD RX=Re16:"5.453099789":RAD

In:  AM=MULTPI FI=0 SL=0 RY=LonI:"2" RX=Re16:"3.453099789":RAD
Out: EC=0 FI=0 SL=1 RL=Re16:"3.453099789":RAD RX=Re16:"3.0991558008178615831072333521343105438813244268707698238685188":MULTPI

In:  AM=DEG FI=0 SL=0 RY=LonI:"2" RX=Re16:"3.453099789":MULTPI
Out: EC=0 FI=0 SL=1 RL=Re16:"3.453099789":MULTPI RX=Re16:"623.55796202":DEG

In:  AM=DMS FI=0 SL=0 RY=LonI:"2" RX=Re16:"3.453099789":MULTPI
Out: EC=0 FI=0 SL=1 RL=Re16:"3.453099789":MULTPI RX=Re16:"623.3328663272":DMS

In:  AM=GRAD FI=0 SL=0 RY=LonI:"2" RX=Re16:"3.453099789":MULTPI
Out: EC=0 FI=0 SL=1 RL=Re16:"3.453099789":MULTPI RX=Re16:"692.6199578":GRAD

In:  AM=RAD FI=0 SL=0 RY=LonI:"2" RX=Re16:"3.453099789":MULTPI
Out: EC=0 FI=0 SL=1 RL=Re16:"3.453099789":MULTPI RX=Re16:"12.848232929234865124288980551184697537446137087379434642261253":RAD

In:  AM=MULTPI FI=0 SL=0 RY=LonI:"2" RX=Re16:"3.453099789":MULTPI
Out: EC=0 FI=0 SL=1 RL=Re16:"3.453099789":MULTPI RX=Re16:"5.453099789":MULTPI

;=======================================
; Real16 + Long Integer --> Real16
;=======================================
In:  SL=0 NCSD=16 FI=0 RY=Re16:"123.456" RX=LonI:"12545543120284569505847489630102030405"
Out: EC=0 FI=0 SL=1 RL=LonI:"12545543120284569505847489630102030405" RX=Re16:"12545543120284569505847489630102030528.456"

; Correct rounding test
In:  SL=0 NCSD=16 RY=Re16:"1000000000000456.0" RX=LonI:"10000000000004567"
Out: EC=0 FI=0 SL=1 RL=LonI:"10000000000004567" RX=Re16:"11000000000005023.0"

In:  AM=DEG FI=0 SL=0 NCSD=16 RY=Re16:"123.4":DEG RX=LonI:"2"
Out: EC=0 FI=0 SL=1 RL=LonI:"2" RX=Re16:"125.4":DEG

In:  AM=DMS FI=0 SL=0 RY=Re16:"123.4":DEG RX=LonI:"2"
Out: EC=0 FI=0 SL=1 RL=LonI:"2" RX=Re16:"125.24":DMS

In:  AM=GRAD FI=0 SL=0 RY=Re16:"123.4":DEG RX=LonI:"2"
Out: EC=0 FI=0 SL=1 RL=LonI:"2" RX=Re16:"139.11111111111111111111111111111111111111111111111111111111111":GRAD

In:  AM=RAD FI=0 SL=0 RY=Re16:"123.4":DEG RX=LonI:"2"
Out: EC=0 FI=0 SL=1 RL=LonI:"2" RX=Re16:"4.1537362969610026979238344083149480883885039104604892128239342":RAD

In:  AM=MULTPI FI=0 SL=0 RY=Re16:"123.4":DEG RX=LonI:"2"
Out: EC=0 FI=0 SL=1 RL=LonI:"2" RX=Re16:"2.6855555555555555555555555555555555555555555555555555555555556":MULTPI

In:  AM=DEG FI=0 SL=0 RY=Re16:"123.453099":DMS RX=LonI:"2"
Out: EC=0 FI=0 SL=1 RL=LonI:"2" RX=Re16:"125.75860833333333333333333333333333333333333333333333333333333":DEG

In:  AM=DMS FI=0 SL=0 RY=Re16:"123.453099":DMS RX=LonI:"2"
Out: EC=0 FI=0 SL=1 RL=LonI:"2" RX=Re16:"125.453099":DMS

In:  AM=GRAD FI=0 SL=0 RY=Re16:"123.453099":DMS RX=LonI:"2"
Out: EC=0 FI=0 SL=1 RL=LonI:"2" RX=Re16:"139.50956481481481481481481481481481481481481481481481481481482":GRAD

In:  AM=RAD FI=0 SL=0 RY=Re16:"123.453099":DMS RX=LonI:"2"
Out: EC=0 FI=0 SL=1 RL=LonI:"2" RX=Re16:"4.1599951931027586966474808403849789609633028359587905521199534":RAD

In:  AM=MULTPI FI=0 SL=0 RY=Re16:"123.453099":DMS RX=LonI:"2"
Out: EC=0 FI=0 SL=1 RL=LonI:"2" RX=Re16:"2.6875478240740740740740740740740740740740740740740740740740741":MULTPI

In:  AM=DEG FI=0 SL=0 RY=Re16:"123.453099":GRAD RX=LonI:"2"
Out: EC=0 FI=0 SL=1 RL=LonI:"2" RX=Re16:"113.1077891":DEG

In:  AM=DMS FI=0 SL=0 RY=Re16:"123.453099":GRAD RX=LonI:"2"
Out: EC=0 FI=0 SL=1 RL=LonI:"2" RX=Re16:"113.062804076":DMS

In:  AM=GRAD FI=0 SL=0 RY=Re16:"123.453099":GRAD RX=LonI:"2"
Out: EC=0 FI=0 SL=1 RL=LonI:"2" RX=Re16:"125.453099":GRAD

In:  AM=RAD FI=0 SL=0 RY=Re16:"123.453099":GRAD RX=LonI:"2"
Out: EC=0 FI=0 SL=1 RL=LonI:"2" RX=Re16:"3.9391967444064672502872966069884970711678934469041273852614806":RAD

In:  AM=MULTPI FI=0 SL=0 RY=Re16:"123.453099":GRAD RX=LonI:"2"
Out: EC=0 FI=0 SL=1 RL=LonI:"2" RX=Re16:"2.617265495":MULTPI

In:  AM=DEG FI=0 SL=0 RY=Re16:"3.453099789":RAD RX=LonI:"2"
Out: EC=0 FI=0 SL=1 RL=LonI:"2" RX=Re16:"199.84804414721508495930200338417589789863839683673856829633339":DEG

In:  AM=DMS FI=0 SL=0 RY=Re16:"3.453099789":RAD RX=LonI:"2"
Out: EC=0 FI=0 SL=1 RL=LonI:"2" RX=Re16:"199.50529589299743058534872121830332324350982286122588458668002":DMS

In:  AM=GRAD FI=0 SL=0 RY=Re16:"3.453099789":RAD RX=LonI:"2"
Out: EC=0 FI=0 SL=1 RL=LonI:"2" RX=Re16:"221.83116016357231662144667042686210877626488537415396477370377":GRAD

In:  AM=RAD FI=0 SL=0 RY=Re16:"3.453099789":RAD RX=LonI:"2"
Out: EC=0 FI=0 SL=1 RL=LonI:"2" RX=Re16:"5.453099789":RAD

In:  AM=MULTPI FI=0 SL=0 RY=Re16:"3.453099789":RAD RX=LonI:"2"
Out: EC=0 FI=0 SL=1 RL=LonI:"2" RX=Re16:"3.0991558008178615831072333521343105438813244268707698238685188":MULTPI

In:  AM=DEG FI=0 SL=0 RY=Re16:"3.453099789":MULTPI RX=LonI:"2"
Out: EC=0 FI=0 SL=1 RL=LonI:"2" RX=Re16:"623.55796202":DEG

In:  AM=DMS FI=0 SL=0 RY=Re16:"3.453099789":MULTPI RX=LonI:"2"
Out: EC=0 FI=0 SL=1 RL=LonI:"2" RX=Re16:"623.3328663272":DMS

In:  AM=GRAD FI=0 SL=0 RY=Re16:"3.453099789":MULTPI RX=LonI:"2"
Out: EC=0 FI=0 SL=1 RL=LonI:"2" RX=Re16:"692.6199578":GRAD

In:  AM=RAD FI=0 SL=0 RY=Re16:"3.453099789":MULTPI RX=LonI:"2"
Out: EC=0 FI=0 SL=1 RL=LonI:"2" RX=Re16:"12.848232929234865124288980551184697537446137087379434642261253":RAD

In:  AM=MULTPI FI=0 SL=0 RY=Re16:"3.453099789":MULTPI RX=LonI:"2"
Out: EC=0 FI=0 SL=1 RL=LonI:"2" RX=Re16:"5.453099789":MULTPI



;=======================================
; Long Integer + Complex16 --> Complex16
;=======================================
In:  SL=0 FI=0 NCSD=16 RY=LonI:"12540" RX=Co16:"123.456 i -6.78"
Out: EC=0 FI=1 SL=1 RL=Co16:"123.456 i -6.78" RX=Co16:"12663.456 i -6.78"

; Correct rounding test
In:  SL=0 NCSD=16 RY=LonI:"10000000000004567" RX=Co16:"1000000000000456.0 i 3"
Out: EC=0 FI=1 SL=1 RL=Co16:"1000000000000456.0 i 3" RX=Co16:"11000000000005023.0 i 3"

;=======================================
; Complex16 + Long Integer --> Complex16
;=======================================
In:  SL=0 FI=0 NCSD=16 RY=Co16:"123.456 i -6.78" RX=LonI:"12540"
Out: EC=0 FI=1 SL=1 RL=LonI:"12540" RX=Co16:"12663.456 i -6.78"

; Correct rounding test
In:  SL=0 NCSD=16 RY=Co16:"1000000000000456.0 i 5" RX=LonI:"10000000000004567"
Out: EC=0 FI=1 SL=1 RL=LonI:"10000000000004567" RX=Co16:"11000000000005023.0 i 5"



;=======================================
; Long Integer + Time
;=======================================

;=======================================
; Time + Long Integer
;=======================================



;=======================================
; Long Integer + Date
;=======================================

;=======================================
; Date + Long Integer
;=======================================



;=======================================
; Long Integer + String --> Error24
;=======================================
In:  SL=0 RY=LonI:"12540" RX=Stri:"String test"
Out: EC=24 SL=0 RX=Stri:"String test"

;=======================================
; String + Long Integer --> String
;=======================================
In:  SL=0 RY=Stri:"String test " RX=LonI:"-1234"
Out: EC=0 SL=1 RL=LonI:"-1234" RX=Stri:"String test -1\xa0\x08234"



;=======================================
; Long Integer + Real16 Matrix
;=======================================

;=======================================
; Real16 Matrix + Long Integer
;=======================================



;=======================================
; Long Integer + Complex16 Matrix
;=======================================

;=======================================
; Complex16 Matrix + Long Integer
;=======================================



;=======================================
; Long Integer + Short Integer --> Long Integer
;=======================================
In:  SL=0 FI=0 IM=2COMPL RY=LonI:"123456" RX=ShoI:"45247#8" ;RX=19111
Out: EC=0 FI=0 SL=1 RL=ShoI:"45247#8" RX=LonI:"142567"

;=======================================
; Short Integer + Long Integer --> Long Integer
;=======================================
In:  SL=0 FI=0 IM=2COMPL RY=ShoI:"45247#8" RX=LonI:"123456" ;RY=19111
Out: EC=0 FI=0 SL=1 RL=LonI:"123456" RX=LonI:"142567"



;=======================================
; Long Integer + Real34 --> Real34
;=======================================
In:  SL=0 FI=0 NCSD=34 RY=LonI:"37125455431202845695058474896301" RX=Re34:"123.456"
Out: EC=0 FI=0 SL=1 RL=Re34:"123.456" RX=Re34:"37125455431202845695058474896424.456"

; Correct rounding test
In:  SL=0 NCSD=16 RY=LonI:"10000000000000000000000000000004567" RX=Re34:"1000000000000000000000000000000456.0"
Out: EC=0 FI=0 SL=1 RL=Re34:"1000000000000000000000000000000456.0" RX=Re34:"11000000000000000000000000000005023.0"

In:  AM=DEG FI=0 SL=0 NCSD=34 RY=LonI:"2" RX=Re34:"123.4":DEG
Out: EC=0 FI=0 SL=1 RL=Re34:"123.4":DEG RX=Re34:"125.4":DEG

In:  AM=DMS FI=0 SL=0 RY=LonI:"2" RX=Re34:"123.4":DEG
Out: EC=0 FI=0 SL=1 RL=Re34:"123.4":DEG RX=Re34:"125.24":DMS

In:  AM=GRAD FI=0 SL=0 RY=LonI:"2" RX=Re34:"123.4":DEG
Out: EC=0 FI=0 SL=1 RL=Re34:"123.4":DEG RX=Re34:"139.11111111111111111111111111111111111111111111111111111111111":GRAD

In:  AM=RAD FI=0 SL=0 RY=LonI:"2" RX=Re34:"123.4":DEG
Out: EC=0 FI=0 SL=1 RL=Re34:"123.4":DEG RX=Re34:"4.1537362969610026979238344083149480883885039104604892128239342":RAD

In:  AM=MULTPI FI=0 SL=0 RY=LonI:"2" RX=Re34:"123.4":DEG
Out: EC=0 FI=0 SL=1 RL=Re34:"123.4":DEG RX=Re34:"2.6855555555555555555555555555555555555555555555555555555555556":MULTPI

In:  AM=DEG FI=0 SL=0 RY=LonI:"2" RX=Re34:"123.453099":DMS
Out: EC=0 FI=0 SL=1 RL=Re34:"123.453099":DMS RX=Re34:"125.75860833333333333333333333333333333333333333333333333333333":DEG

In:  AM=DMS FI=0 SL=0 RY=LonI:"2" RX=Re34:"123.453099":DMS
Out: EC=0 FI=0 SL=1 RL=Re34:"123.453099":DMS RX=Re34:"125.453099":DMS

In:  AM=GRAD FI=0 SL=0 RY=LonI:"2" RX=Re34:"123.453099":DMS
Out: EC=0 FI=0 SL=1 RL=Re34:"123.453099":DMS RX=Re34:"139.50956481481481481481481481481481481481481481481481481481482":GRAD

In:  AM=RAD FI=0 SL=0 RY=LonI:"2" RX=Re34:"123.453099":DMS
Out: EC=0 FI=0 SL=1 RL=Re34:"123.453099":DMS RX=Re34:"4.1599951931027586966474808403849789609633028359587905521199534":RAD

In:  AM=MULTPI FI=0 SL=0 RY=LonI:"2" RX=Re34:"123.453099":DMS
Out: EC=0 FI=0 SL=1 RL=Re34:"123.453099":DMS RX=Re34:"2.6875478240740740740740740740740740740740740740740740740740741":MULTPI

In:  AM=DEG FI=0 SL=0 RY=LonI:"2" RX=Re34:"123.453099":GRAD
Out: EC=0 FI=0 SL=1 RL=Re34:"123.453099":GRAD RX=Re34:"113.1077891":DEG

In:  AM=DMS FI=0 SL=0 RY=LonI:"2" RX=Re34:"123.453099":GRAD
Out: EC=0 FI=0 SL=1 RL=Re34:"123.453099":GRAD RX=Re34:"113.062804076":DMS

In:  AM=GRAD FI=0 SL=0 RY=LonI:"2" RX=Re34:"123.453099":GRAD
Out: EC=0 FI=0 SL=1 RL=Re34:"123.453099":GRAD RX=Re34:"125.453099":GRAD

In:  AM=RAD FI=0 SL=0 RY=LonI:"2" RX=Re34:"123.453099":GRAD
Out: EC=0 FI=0 SL=1 RL=Re34:"123.453099":GRAD RX=Re34:"3.9391967444064672502872966069884970711678934469041273852614806":RAD

In:  AM=MULTPI FI=0 SL=0 RY=LonI:"2" RX=Re34:"123.453099":GRAD
Out: EC=0 FI=0 SL=1 RL=Re34:"123.453099":GRAD RX=Re34:"2.617265495":MULTPI

In:  AM=DEG FI=0 SL=0 RY=LonI:"2" RX=Re34:"3.453099789":RAD
Out: EC=0 FI=0 SL=1 RL=Re34:"3.453099789":RAD RX=Re34:"199.84804414721508495930200338417589789863839683673856829633339":DEG

In:  AM=DMS FI=0 SL=0 RY=LonI:"2" RX=Re34:"3.453099789":RAD
Out: EC=0 FI=0 SL=1 RL=Re34:"3.453099789":RAD RX=Re34:"199.50529589299743058534872121830332324350982286122588458668002":DMS

In:  AM=GRAD FI=0 SL=0 RY=LonI:"2" RX=Re34:"3.453099789":RAD
Out: EC=0 FI=0 SL=1 RL=Re34:"3.453099789":RAD RX=Re34:"221.83116016357231662144667042686210877626488537415396477370377":GRAD

In:  AM=RAD FI=0 SL=0 RY=LonI:"2" RX=Re34:"3.453099789":RAD
Out: EC=0 FI=0 SL=1 RL=Re34:"3.453099789":RAD RX=Re34:"5.453099789":RAD

In:  AM=MULTPI FI=0 SL=0 RY=LonI:"2" RX=Re34:"3.453099789":RAD
Out: EC=0 FI=0 SL=1 RL=Re34:"3.453099789":RAD RX=Re34:"3.0991558008178615831072333521343105438813244268707698238685188":MULTPI

In:  AM=DEG FI=0 SL=0 RY=LonI:"2" RX=Re34:"3.453099789":MULTPI
Out: EC=0 FI=0 SL=1 RL=Re34:"3.453099789":MULTPI RX=Re34:"623.55796202":DEG

In:  AM=DMS FI=0 SL=0 RY=LonI:"2" RX=Re34:"3.453099789":MULTPI
Out: EC=0 FI=0 SL=1 RL=Re34:"3.453099789":MULTPI RX=Re34:"623.3328663272":DMS

In:  AM=GRAD FI=0 SL=0 RY=LonI:"2" RX=Re34:"3.453099789":MULTPI
Out: EC=0 FI=0 SL=1 RL=Re34:"3.453099789":MULTPI RX=Re34:"692.6199578":GRAD

In:  AM=RAD FI=0 SL=0 RY=LonI:"2" RX=Re34:"3.453099789":MULTPI
Out: EC=0 FI=0 SL=1 RL=Re34:"3.453099789":MULTPI RX=Re34:"12.848232929234865124288980551184697537446137087379434642261253":RAD

In:  AM=MULTPI FI=0 SL=0 RY=LonI:"2" RX=Re34:"3.453099789":MULTPI
Out: EC=0 FI=0 SL=1 RL=Re34:"3.453099789":MULTPI RX=Re34:"5.453099789":MULTPI

;=======================================
; Real34 + Long Integer --> Real34
;=======================================
In:  SL=0 FI=0 NCSD=34 RY=Re34:"123.456" RX=LonI:"12545543120284569505847489630102030405"
Out: EC=0 FI=0 SL=1 RL=LonI:"12545543120284569505847489630102030405" RX=Re34:"12545543120284569505847489630102030528.456"

; Correct rounding test
In:  SL=0 NCSD=16 RY=Re34:"1000000000000000000000000000000456.0" RX=LonI:"10000000000000000000000000000004567"
Out: EC=0 FI=0 SL=1 RL=LonI:"10000000000000000000000000000004567" RX=Re34:"11000000000000000000000000000005023.0"

In:  AM=DEG FI=0 SL=0 NCSD=34 RY=Re34:"123.4":DEG RX=LonI:"2"
Out: EC=0 FI=0 SL=1 RL=LonI:"2" RX=Re34:"125.4":DEG

In:  AM=DMS FI=0 SL=0 RY=Re34:"123.4":DEG RX=LonI:"2"
Out: EC=0 FI=0 SL=1 RL=LonI:"2" RX=Re34:"125.24":DMS

In:  AM=GRAD FI=0 SL=0 RY=Re34:"123.4":DEG RX=LonI:"2"
Out: EC=0 FI=0 SL=1 RL=LonI:"2" RX=Re34:"139.11111111111111111111111111111111111111111111111111111111111":GRAD

In:  AM=RAD FI=0 SL=0 RY=Re34:"123.4":DEG RX=LonI:"2"
Out: EC=0 FI=0 SL=1 RL=LonI:"2" RX=Re34:"4.1537362969610026979238344083149480883885039104604892128239342":RAD

In:  AM=MULTPI FI=0 SL=0 RY=Re34:"123.4":DEG RX=LonI:"2"
Out: EC=0 FI=0 SL=1 RL=LonI:"2" RX=Re34:"2.6855555555555555555555555555555555555555555555555555555555556":MULTPI

In:  AM=DEG FI=0 SL=0 RY=Re34:"123.453099":DMS RX=LonI:"2"
Out: EC=0 FI=0 SL=1 RL=LonI:"2" RX=Re34:"125.75860833333333333333333333333333333333333333333333333333333":DEG

In:  AM=DMS FI=0 SL=0 RY=Re34:"123.453099":DMS RX=LonI:"2"
Out: EC=0 FI=0 SL=1 RL=LonI:"2" RX=Re34:"125.453099":DMS

In:  AM=GRAD FI=0 SL=0 RY=Re34:"123.453099":DMS RX=LonI:"2"
Out: EC=0 FI=0 SL=1 RL=LonI:"2" RX=Re34:"139.50956481481481481481481481481481481481481481481481481481482":GRAD

In:  AM=RAD FI=0 SL=0 RY=Re34:"123.453099":DMS RX=LonI:"2"
Out: EC=0 FI=0 SL=1 RL=LonI:"2" RX=Re34:"4.1599951931027586966474808403849789609633028359587905521199534":RAD

In:  AM=MULTPI FI=0 SL=0 RY=Re34:"123.453099":DMS RX=LonI:"2"
Out: EC=0 FI=0 SL=1 RL=LonI:"2" RX=Re34:"2.6875478240740740740740740740740740740740740740740740740740741":MULTPI

In:  AM=DEG FI=0 SL=0 RY=Re34:"123.453099":GRAD RX=LonI:"2"
Out: EC=0 FI=0 SL=1 RL=LonI:"2" RX=Re34:"113.1077891":DEG

In:  AM=DMS FI=0 SL=0 RY=Re34:"123.453099":GRAD RX=LonI:"2"
Out: EC=0 FI=0 SL=1 RL=LonI:"2" RX=Re34:"113.062804076":DMS

In:  AM=GRAD FI=0 SL=0 RY=Re34:"123.453099":GRAD RX=LonI:"2"
Out: EC=0 FI=0 SL=1 RL=LonI:"2" RX=Re34:"125.453099":GRAD

In:  AM=RAD FI=0 SL=0 RY=Re34:"123.453099":GRAD RX=LonI:"2"
Out: EC=0 FI=0 SL=1 RL=LonI:"2" RX=Re34:"3.9391967444064672502872966069884970711678934469041273852614806":RAD

In:  AM=MULTPI FI=0 SL=0 RY=Re34:"123.453099":GRAD RX=LonI:"2"
Out: EC=0 FI=0 SL=1 RL=LonI:"2" RX=Re34:"2.617265495":MULTPI

In:  AM=DEG FI=0 SL=0 RY=Re34:"3.453099789":RAD RX=LonI:"2"
Out: EC=0 FI=0 SL=1 RL=LonI:"2" RX=Re34:"199.84804414721508495930200338417589789863839683673856829633339":DEG

In:  AM=DMS FI=0 SL=0 RY=Re34:"3.453099789":RAD RX=LonI:"2"
Out: EC=0 FI=0 SL=1 RL=LonI:"2" RX=Re34:"199.50529589299743058534872121830332324350982286122588458668002":DMS

In:  AM=GRAD FI=0 SL=0 RY=Re34:"3.453099789":RAD RX=LonI:"2"
Out: EC=0 FI=0 SL=1 RL=LonI:"2" RX=Re34:"221.83116016357231662144667042686210877626488537415396477370377":GRAD

In:  AM=RAD FI=0 SL=0 RY=Re34:"3.453099789":RAD RX=LonI:"2"
Out: EC=0 FI=0 SL=1 RL=LonI:"2" RX=Re34:"5.453099789":RAD

In:  AM=MULTPI FI=0 SL=0 RY=Re34:"3.453099789":RAD RX=LonI:"2"
Out: EC=0 FI=0 SL=1 RL=LonI:"2" RX=Re34:"3.0991558008178615831072333521343105438813244268707698238685188":MULTPI

In:  AM=DEG FI=0 SL=0 RY=Re34:"3.453099789":MULTPI RX=LonI:"2"
Out: EC=0 FI=0 SL=1 RL=LonI:"2" RX=Re34:"623.55796202":DEG

In:  AM=DMS FI=0 SL=0 RY=Re34:"3.453099789":MULTPI RX=LonI:"2"
Out: EC=0 FI=0 SL=1 RL=LonI:"2" RX=Re34:"623.3328663272":DMS

In:  AM=GRAD FI=0 SL=0 RY=Re34:"3.453099789":MULTPI RX=LonI:"2"
Out: EC=0 FI=0 SL=1 RL=LonI:"2" RX=Re34:"692.6199578":GRAD

In:  AM=RAD FI=0 SL=0 RY=Re34:"3.453099789":MULTPI RX=LonI:"2"
Out: EC=0 FI=0 SL=1 RL=LonI:"2" RX=Re34:"12.848232929234865124288980551184697537446137087379434642261253":RAD

In:  AM=MULTPI FI=0 SL=0 RY=Re34:"3.453099789":MULTPI RX=LonI:"2"
Out: EC=0 FI=0 SL=1 RL=LonI:"2" RX=Re34:"5.453099789":MULTPI



;=======================================
; Long Integer + Complex34 --> Complex34
;=======================================
In:  SL=0 FI=0 NCSD=34 RY=LonI:"12540" RX=Co34:"123.456 i -6.78"
Out: EC=0 FI=1 SL=1 RL=Co34:"123.456 i -6.78" RX=Co34:"12663.456 i -6.78"

; Correct rounding test
In:  SL=0 NCSD=16 RY=LonI:"10000000000000000000000000000004567" RX=Co16:"1000000000000000000000000000000456.0 i 3"
Out: EC=0 FI=1 SL=1 RL=Co16:"1000000000000000000000000000000456.0 i 3" RX=Co16:"11000000000000000000000000000005023.0 i 3"

;=======================================
; Complex34 + Long Integer --> Complex34
;=======================================
In:  SL=0 FI=0 NCSD=34 RY=Co34:"123.456 i -6.78" RX=LonI:"12540"
Out: EC=0 FI=1 SL=1 RL=LonI:"12540" RX=Co34:"12663.456 i -6.78"

; Correct rounding test
In:  SL=0 NCSD=16 RY=Co16:"1000000000000000000000000000000456.0 i 5" RX=LonI:"10000000000000000000000000000004567"
Out: EC=0 FI=1 SL=1 RL=LonI:"10000000000000000000000000000004567" RX=Co16:"11000000000000000000000000000005023.0 i 5"
