;*************************************************************
;*************************************************************
;**                                                         **
;**                  SHORT INTEGER / ...                    **
;**                  ... / SHORT INTEGER                    **
;**                                                         **
;*************************************************************
;*************************************************************
In: FD=0 FI=0 SD=0 RM=0 IM=2compl SS=4 WS=64
Func: fnDivide



;==================================================================
; Short Integer / Long Integer      see in division_longInteger.txt
; Short Integer / Real16            see in division_real16.txt
; Short Integer / Complex16         see in division_complex16.txt
; Short Integer / Time              see in division_time.txt
; Short Integer / Date              see in division_date.txt
; Short Integer / String            see in division_string.txt
; Short Integer / Real16 Matrix     see in division_real16Matrix.txt
; Short Integer / Complex16 Matrix  see in division_complex16Matrix.txt
;==================================================================



;=======================================
; Short Integer / Short Integer --> Short Integer
;=======================================
In:  SL=0 FI=0 RY=ShoI:"12540#10" RX=ShoI:"10000#2"
Out: EC=0 FI=0 SL=1 RL=ShoI:"10000#2" RX=ShoI:"783#10"



;=======================================
; Short Integer / Real34 --> Real34
;=======================================
In:  SL=0 FI=0 IM=2COMPL NCSD=34 RY=ShoI:"45247#8" RX=Re34:"123456" ;RY=19111
Out: EC=0 FI=0 SL=1 RL=Re34:"123456" RX=Re34:"0.1548000907205806117159149818558838776568170036288232244686366"

In:  AM=DEG FI=0 SL=0 NCSD=34 RY=ShoI:"2#10" RX=Re34:"123.4":DEG
Out: EC=0 FI=0 SL=1 RL=Re34:"123.4":DEG RX=Re34:"0.016207455429497568881685575364667747163695299837925445705024311"

In:  AM=DMS FI=0 SL=0 RY=ShoI:"10#2" RX=Re34:"123.4":DEG
Out: EC=0 FI=0 SL=1 RL=Re34:"123.4":DEG RX=Re34:"0.016207455429497568881685575364667747163695299837925445705024311"

In:  AM=GRAD FI=0 SL=0 RY=ShoI:"2#16" RX=Re34:"123.4":DEG
Out: EC=0 FI=0 SL=1 RL=Re34:"123.4":DEG RX=Re34:"0.016207455429497568881685575364667747163695299837925445705024311"

In:  AM=RAD FI=0 SL=0 RY=ShoI:"2#11" RX=Re34:"123.4":DEG
Out: EC=0 FI=0 SL=1 RL=Re34:"123.4":DEG RX=Re34:"0.016207455429497568881685575364667747163695299837925445705024311"

In:  AM=MULTPI FI=0 SL=0 RY=ShoI:"232#4" RX=Re34:"123.4":DEG ;RY=46
Out: EC=0 FI=0 SL=1 RL=Re34:"123.4":DEG RX=Re34:"0.37277147487844408427876823338735818476499189627228525121555916"

In:  AM=DEG FI=0 SL=0 RY=ShoI:"987#12" RX=Re34:"123.453099":DMS ;RY=1399
Out: EC=0 FI=0 SL=1 RL=Re34:"123.453099":DMS RX=Re34:"11.332238812409237292617498407229129177227053652172798027532707"

In:  AM=DMS FI=0 SL=0 RY=ShoI:"2#3" RX=Re34:"123.453099":DMS
Out: EC=0 FI=0 SL=1 RL=Re34:"123.453099":DMS RX=Re34:"0.016200484363701554385443171418483386958151613512755965729138966"

In:  AM=GRAD FI=0 SL=0 RY=ShoI:"2#5" RX=Re34:"123.453099":DMS
Out: EC=0 FI=0 SL=1 RL=Re34:"123.453099":DMS RX=Re34:"0.016200484363701554385443171418483386958151613512755965729138966"

In:  AM=RAD FI=0 SL=0 RY=ShoI:"2#6" RX=Re34:"123.453099":DMS
Out: EC=0 FI=0 SL=1 RL=Re34:"123.453099":DMS RX=Re34:"0.016200484363701554385443171418483386958151613512755965729138966"

In:  AM=MULTPI FI=0 SL=0 RY=ShoI:"2#7" RX=Re34:"123.453099":DMS
Out: EC=0 FI=0 SL=1 RL=Re34:"123.453099":DMS RX=Re34:"0.016200484363701554385443171418483386958151613512755965729138966"

In:  AM=DEG FI=0 SL=0 RY=ShoI:"2#9" RX=Re34:"123.453099":GRAD
Out: EC=0 FI=0 SL=1 RL=Re34:"123.453099":GRAD RX=Re34:"0.016200484363701554385443171418483386958151613512755965729138966"

In:  AM=DMS FI=0 SL=0 RY=ShoI:"2#13" RX=Re34:"123.453099":GRAD
Out: EC=0 FI=0 SL=1 RL=Re34:"123.453099":GRAD RX=Re34:"0.016200484363701554385443171418483386958151613512755965729138966"

In:  AM=GRAD FI=0 SL=0 RY=ShoI:"2#14" RX=Re34:"123.453099":GRAD
Out: EC=0 FI=0 SL=1 RL=Re34:"123.453099":GRAD RX=Re34:"0.016200484363701554385443171418483386958151613512755965729138966"

In:  AM=RAD FI=0 SL=0 Ry=ShoI:"2#15" RX=Re34:"123.453099":GRAD
Out: EC=0 FI=0 SL=1 RL=Re34:"123.453099":GRAD RX=Re34:"0.016200484363701554385443171418483386958151613512755965729138966"

In:  AM=MULTPI FI=0 SL=0 RY=ShoI:"2#3" RX=Re34:"123.453099":GRAD
Out: EC=0 FI=0 SL=1 RL=Re34:"123.453099":GRAD RX=Re34:"0.016200484363701554385443171418483386958151613512755965729138966"

In:  AM=DEG FI=0 SL=0 RY=ShoI:"2#4" RX=Re34:"3.453099789":RAD
Out: EC=0 FI=0 SL=1 RL=Re34:"3.453099789":RAD RX=Re34:"0.57918974898179520869907880904278147404560859043277419747917977"

In:  AM=DMS FI=0 SL=0 RY=ShoI:"2#5" RX=Re34:"3.453099789":RAD
Out: EC=0 FI=0 SL=1 RL=Re34:"3.453099789":RAD RX=Re34:"0.57918974898179520869907880904278147404560859043277419747917977"

In:  AM=GRAD FI=0 SL=0 RY=ShoI:"2#6" RX=Re34:"3.453099789":RAD
Out: EC=0 FI=0 SL=1 RL=Re34:"3.453099789":RAD RX=Re34:"0.57918974898179520869907880904278147404560859043277419747917977"

In:  AM=RAD FI=0 SL=0 RY=ShoI:"2#7" RX=Re34:"3.453099789":RAD
Out: EC=0 FI=0 SL=1 RL=Re34:"3.453099789":RAD RX=Re34:"0.57918974898179520869907880904278147404560859043277419747917977"

In:  AM=MULTPI FI=0 SL=0 RY=ShoI:"2#8" RX=Re34:"3.453099789":RAD
Out: EC=0 FI=0 SL=1 RL=Re34:"3.453099789":RAD RX=Re34:"0.57918974898179520869907880904278147404560859043277419747917977"

In:  AM=DEG FI=0 SL=0 RY=ShoI:"2#9" RX=Re34:"3.453099789":MULTPI
Out: EC=0 FI=0 SL=1 RL=Re34:"3.453099789":MULTPI RX=Re34:"0.57918974898179520869907880904278147404560859043277419747917977"

In:  AM=DMS FI=0 SL=0 RY=ShoI:"2#10" RX=Re34:"3.453099789":MULTPI
Out: EC=0 FI=0 SL=1 RL=Re34:"3.453099789":MULTPI RX=Re34:"0.57918974898179520869907880904278147404560859043277419747917977"

In:  AM=GRAD FI=0 SL=0 RY=ShoI:"2#11" RX=Re34:"3.453099789":MULTPI
Out: EC=0 FI=0 SL=1 RL=Re34:"3.453099789":MULTPI RX=Re34:"0.57918974898179520869907880904278147404560859043277419747917977"

In:  AM=RAD FI=0 SL=0 RY=ShoI:"2#12" RX=Re34:"3.453099789":MULTPI
Out: EC=0 FI=0 SL=1 RL=Re34:"3.453099789":MULTPI RX=Re34:"0.57918974898179520869907880904278147404560859043277419747917977"

In:  AM=MULTPI FI=0 SL=0 RY=ShoI:"2#13" RX=Re34:"3.453099789":MULTPI
Out: EC=0 FI=0 SL=1 RL=Re34:"3.453099789":MULTPI RX=Re34:"0.57918974898179520869907880904278147404560859043277419747917977"

;=======================================
; Real34 / Short Integer --> Real34
;=======================================
In:  SL=0 FI=0 IM=2COMPL NCSD=34 RY=Re34:"123456" RX=ShoI:"45247#8" ;RX=19111
Out: EC=0 FI=0 SL=1 RL=ShoI:"45247#8" RX=Re34:"6.45994453456124744911307623881534194966249803777928941447334"

In:  AM=DEG FI=0 SL=0 NCSD=34 RY=Re34:"123.4":DEG RX=ShoI:"2#10"
Out: EC=0 FI=0 SL=1 RL=ShoI:"2#10" RX=Re34:"61.7":DEG

In:  AM=DMS FI=0 SL=0 RY=Re34:"123.4":DEG RX=ShoI:"10#2"
Out: EC=0 FI=0 SL=1 RL=ShoI:"10#2" RX=Re34:"61.42":DMS

In:  AM=GRAD FI=0 SL=0 RY=Re34:"123.4":DEG RX=ShoI:"2#16"
Out: EC=0 FI=0 SL=1 RL=ShoI:"2#16" RX=Re34:"68.555555555555555555555555555555555555555555555555555555555556":GRAD

In:  AM=RAD FI=0 SL=0 RY=Re34:"123.4":DEG RX=ShoI:"2#11"
Out: EC=0 FI=0 SL=1 RL=ShoI:"2#11" RX=Re34:"1.0768681484805013489619172041574740441942519552302446064119671":RAD

In:  AM=MULTPI FI=0 SL=0 RY=Re34:"123.4":DEG RX=ShoI:"232#4" ;RX=46
Out: EC=0 FI=0 SL=1 RL=ShoI:"232#4" RX=Re34:"0.014903381642512077294685990338164251207729468599033816425120773":MULTPI

In:  AM=DEG FI=0 SL=0 RY=Re34:"123.453099":DMS RX=ShoI:"987#12" ;RX=1399
Out: EC=0 FI=0 SL=1 RL=ShoI:"987#12" RX=Re34:"0.088462193233261853705027400524183940910173933762211103168930188":DEG

In:  AM=DMS FI=0 SL=0 RY=Re34:"123.453099":DMS RX=ShoI:"2#3"
Out: EC=0 FI=0 SL=1 RL=ShoI:"2#3" RX=Re34:"61.5245495":DMS

In:  AM=GRAD FI=0 SL=0 RY=Re34:"123.453099":DMS RX=ShoI:"2#5"
Out: EC=0 FI=0 SL=1 RL=ShoI:"2#5" RX=Re34:"68.754782407407407407407407407407407407407407407407407407407407":GRAD

In:  AM=RAD FI=0 SL=0 RY=Re34:"123.453099":DMS RX=ShoI:"2#6"
Out: EC=0 FI=0 SL=1 RL=ShoI:"2#6" RX=Re34:"1.0799975965513793483237404201924894804816514179793952760599767":RAD

In:  AM=MULTPI FI=0 SL=0 RY=Re34:"123.453099":DMS RX=ShoI:"2#7"
Out: EC=0 FI=0 SL=1 RL=ShoI:"2#7" RX=Re34:"0.34377391203703703703703703703703703703703703703703703703703704":MULTPI

In:  AM=DEG FI=0 SL=0 RY=Re34:"123.453099":GRAD RX=ShoI:"2#9"
Out: EC=0 FI=0 SL=1 RL=ShoI:"2#9" RX=Re34:"55.55389455":DEG

In:  AM=DMS FI=0 SL=0 RY=Re34:"123.453099":GRAD RX=ShoI:"2#13"
Out: EC=0 FI=0 SL=1 RL=ShoI:"2#13" RX=Re34:"55.331402038":DMS

In:  AM=GRAD FI=0 SL=0 RY=Re34:"123.453099":GRAD RX=ShoI:"2#14"
Out: EC=0 FI=0 SL=1 RL=ShoI:"2#14" RX=Re34:"61.7265495":GRAD

In:  AM=RAD FI=0 SL=0 RY=Re34:"123.453099":GRAD RX=ShoI:"2#15"
Out: EC=0 FI=0 SL=1 RL=ShoI:"2#15" RX=Re34:"0.96959837220323362514364830349424853558394672345206369263074028":RAD

In:  AM=MULTPI FI=0 SL=0 RY=Re34:"123.453099":GRAD RX=ShoI:"2#3"
Out: EC=0 FI=0 SL=1 RL=ShoI:"2#3" RX=Re34:"0.3086327475":MULTPI

In:  AM=DEG FI=0 SL=0 RY=Re34:"3.453099789":RAD RX=ShoI:"2#4"
Out: EC=0 FI=0 SL=1 RL=ShoI:"2#4" RX=Re34:"98.9240220736075424796510016920879489493191984183692841481667":DEG

In:  AM=DMS FI=0 SL=0 RY=Re34:"3.453099789":RAD RX=ShoI:"2#5"
Out: EC=0 FI=0 SL=1 RL=ShoI:"2#5" RX=Re34:"98.5526479464987152926743606091516616217549114306129422933400":DMS

In:  AM=GRAD FI=0 SL=0 RY=Re34:"3.453099789":RAD RX=ShoI:"2#6"
Out: EC=0 FI=0 SL=1 RL=ShoI:"2#6" RX=Re34:"109.91558008178615831072333521343105438813244268707698238685188":GRAD

In:  AM=RAD FI=0 SL=0 RY=Re34:"3.453099789":RAD RX=ShoI:"2#7"
Out: EC=0 FI=0 SL=1 RL=ShoI:"2#7" RX=Re34:"1.7265498945":RAD

In:  AM=MULTPI FI=0 SL=0 RY=Re34:"3.453099789":RAD RX=ShoI:"2#8"
Out: EC=0 FI=0 SL=1 RL=ShoI:"2#8" RX=Re34:"0.54957790040893079155361667606715527194066221343538491193425942":MULTPI

In:  AM=DEG FI=0 SL=0 RY=Re34:"3.453099789":MULTPI RX=ShoI:"2#9"
Out: EC=0 FI=0 SL=1 RL=ShoI:"2#9" RX=Re34:"310.77898101":DEG

In:  AM=DMS FI=0 SL=0 RY=Re34:"3.453099789":MULTPI RX=ShoI:"2#10"
Out: EC=0 FI=0 SL=1 RL=ShoI:"2#10" RX=Re34:"310.4644331636":DMS

In:  AM=GRAD FI=0 SL=0 RY=Re34:"3.453099789":MULTPI RX=ShoI:"2#11"
Out: EC=0 FI=0 SL=1 RL=ShoI:"2#11" RX=Re34:"345.3099789":GRAD

In:  AM=RAD FI=0 SL=0 RY=Re34:"3.453099789":MULTPI RX=ShoI:"2#12"
Out: EC=0 FI=0 SL=1 RL=ShoI:"2#12" RX=Re34:"5.4241164646174325621444902755923487687230685436897173211306265":RAD

In:  AM=MULTPI FI=0 SL=0 RY=Re34:"3.453099789":MULTPI RX=ShoI:"2#13"
Out: EC=0 FI=0 SL=1 RL=ShoI:"2#13" RX=Re34:"1.7265498945":MULTPI


;=======================================
; Short Integer / Complex34 --> Complex34
;=======================================
In:  SL=0 FI=0 NCSD=34 RY=ShoI:"12540#10" RX=Co34:"123.456 i -6.78"
Out: EC=0 FI=1 SL=1 RL=Co34:"123.456 i -6.78" RX=Co34:"101.26921954655994264774300155830463486479821262883202772543202 i 5.5615385929049735221592919790476398423999796010196438243457516"

;=======================================
; Complex34 / Short Integer --> Complex34
;=======================================
In:  SL=0 FI=0 IM=2COMPL NCSD=34 RY=Co34:"123456 i -546" RX=ShoI:"45247#8" ;RX=19111
Out: EC=0 FI=1 SL=1 RL=ShoI:"45247#8" RX=Co34:"6.45994453456124744911307623881534194966249803777928941447334 i -0.028569933546125268170163780021976871958557898592433676939982209"
