;*************************************************************
;*************************************************************
;**                                                         **
;**                 LONG INTEGER ^ ...                      **
;**                 ... ^ LONG INTEGER                      **
;**                                                         **
;*************************************************************
;*************************************************************
In: FD=0 FI=0 SD=0 RM=0 IM=2compl SS=4 WS=64
Func: fnPower



;=======================================
; Long Integer ^ Long Integer --> Long Integer
;=======================================
In:  SL=0 RY=LonI:"2" RX=LonI:"11"
Out: EC=0 FI=0 SL=1 RL=LonI:"11" RX=LonI:"2048"

In:  SL=0 RY=LonI:"-2" RX=LonI:"3"
Out: EC=0 FI=0 SL=1 RL=LonI:"3" RX=LonI:"-8"

In:  SL=0 RY=LonI:"-2" RX=LonI:"4"
Out: EC=0 FI=0 SL=1 RL=LonI:"4" RX=LonI:"16"

In:  SL=0 RY=LonI:"-2" RX=LonI:"5"
Out: EC=0 FI=0 SL=1 RL=LonI:"5" RX=LonI:"-32"

In:  SL=0 RY=LonI:"2" RX=LonI:"200"
Out: EC=0 FI=0 SL=1 RL=LonI:"200" RX=LonI:"1606938044258990275541962092341162602522202993782792835301376"



;=======================================
; Long Integer ^ Real16 --> Real16
;=======================================
In:  SL=0 NCSD=16 RY=LonI:"5" RX=Re16:"123.456"
Out: EC=0 FI=0 SL=1 RL=Re16:"123.456" RX=Re16:"1.9590289562203547661849732382478881082061206314350810594214883e+86"

In:  AM=DEG FI=0 SL=0 NCSD=16 RY=LonI:"2" RX=Re16:"123.4":DEG
Out: EC=0 FI=0 SL=1 RL=Re16:"123.4":DEG RX=Re16:"14031414845271966722579997222050159552.088081736449456307453811"

In:  AM=DMS FI=0 SL=0 RY=LonI:"2" RX=Re16:"123.4":DEG
Out: EC=0 FI=0 SL=1 RL=Re16:"123.4":DEG RX=Re16:"14031414845271966722579997222050159552.088081736449456307453811"

In:  AM=GRAD FI=0 SL=0 RY=LonI:"2" RX=Re16:"123.4":DEG
Out: EC=0 FI=0 SL=1 RL=Re16:"123.4":DEG RX=Re16:"14031414845271966722579997222050159552.088081736449456307453811"

In:  AM=RAD FI=0 SL=0 RY=LonI:"2" RX=Re16:"123.4":DEG
Out: EC=0 FI=0 SL=1 RL=Re16:"123.4":DEG RX=Re16:"14031414845271966722579997222050159552.088081736449456307453811"

In:  AM=MULTPI FI=0 SL=0 RY=LonI:"2" RX=Re16:"123.4":DEG
Out: EC=0 FI=0 SL=1 RL=Re16:"123.4":DEG RX=Re16:"14031414845271966722579997222050159552.088081736449456307453811"

In:  AM=DEG FI=0 SL=0 RY=LonI:"2" RX=Re16:"123.453099":DMS
Out: EC=0 FI=0 SL=1 RL=Re16:"123.453099":DMS RX=Re16:"14557468420784632186278091172514191357.60714127587936564875537"

In:  AM=DMS FI=0 SL=0 RY=LonI:"2" RX=Re16:"123.453099":DMS
Out: EC=0 FI=0 SL=1 RL=Re16:"123.453099":DMS RX=Re16:"14557468420784632186278091172514191357.60714127587936564875537"

In:  AM=GRAD FI=0 SL=0 RY=LonI:"2" RX=Re16:"123.453099":DMS
Out: EC=0 FI=0 SL=1 RL=Re16:"123.453099":DMS RX=Re16:"14557468420784632186278091172514191357.60714127587936564875537"

In:  AM=RAD FI=0 SL=0 RY=LonI:"2" RX=Re16:"123.453099":DMS
Out: EC=0 FI=0 SL=1 RL=Re16:"123.453099":DMS RX=Re16:"14557468420784632186278091172514191357.60714127587936564875537"

In:  AM=MULTPI FI=0 SL=0 RY=LonI:"2" RX=Re16:"123.453099":DMS
Out: EC=0 FI=0 SL=1 RL=Re16:"123.453099":DMS RX=Re16:"14557468420784632186278091172514191357.60714127587936564875537"

In:  AM=DEG FI=0 SL=0 RY=LonI:"2" RX=Re16:"123.453099":GRAD
Out: EC=0 FI=0 SL=1 RL=Re16:"123.453099":GRAD RX=Re16:"14557468420784632186278091172514191357.60714127587936564875537"

In:  AM=DMS FI=0 SL=0 RY=LonI:"2" RX=Re16:"123.453099":GRAD
Out: EC=0 FI=0 SL=1 RL=Re16:"123.453099":GRAD RX=Re16:"14557468420784632186278091172514191357.60714127587936564875537"

In:  AM=GRAD FI=0 SL=0 RY=LonI:"2" RX=Re16:"123.453099":GRAD
Out: EC=0 FI=0 SL=1 RL=Re16:"123.453099":GRAD RX=Re16:"14557468420784632186278091172514191357.60714127587936564875537"

In:  AM=RAD FI=0 SL=0 RY=LonI:"2" RX=Re16:"123.453099":GRAD
Out: EC=0 FI=0 SL=1 RL=Re16:"123.453099":GRAD RX=Re16:"14557468420784632186278091172514191357.60714127587936564875537"

In:  AM=MULTPI FI=0 SL=0 RY=LonI:"2" RX=Re16:"123.453099":GRAD
Out: EC=0 FI=0 SL=1 RL=Re16:"123.453099":GRAD RX=Re16:"14557468420784632186278091172514191357.60714127587936564875537"

In:  AM=DEG FI=0 SL=0 RY=LonI:"2" RX=Re16:"3.453099789":RAD
Out: EC=0 FI=0 SL=1 RL=Re16:"3.453099789":RAD RX=Re16:"10.951827999657763014974112684628139432600036141997959332555989"

In:  AM=DMS FI=0 SL=0 RY=LonI:"2" RX=Re16:"3.453099789":RAD
Out: EC=0 FI=0 SL=1 RL=Re16:"3.453099789":RAD RX=Re16:"10.951827999657763014974112684628139432600036141997959332555989"

In:  AM=GRAD FI=0 SL=0 RY=LonI:"2" RX=Re16:"3.453099789":RAD
Out: EC=0 FI=0 SL=1 RL=Re16:"3.453099789":RAD RX=Re16:"10.951827999657763014974112684628139432600036141997959332555989"

In:  AM=RAD FI=0 SL=0 RY=LonI:"2" RX=Re16:"3.453099789":RAD
Out: EC=0 FI=0 SL=1 RL=Re16:"3.453099789":RAD RX=Re16:"10.951827999657763014974112684628139432600036141997959332555989"

In:  AM=MULTPI FI=0 SL=0 RY=LonI:"2" RX=Re16:"3.453099789":RAD
Out: EC=0 FI=0 SL=1 RL=Re16:"3.453099789":RAD RX=Re16:"10.951827999657763014974112684628139432600036141997959332555989"

In:  AM=DEG FI=0 SL=0 RY=LonI:"2" RX=Re16:"3.453099789":MULTPI
Out: EC=0 FI=0 SL=1 RL=Re16:"3.453099789":MULTPI RX=Re16:"10.951827999657763014974112684628139432600036141997959332555989"

In:  AM=DMS FI=0 SL=0 RY=LonI:"2" RX=Re16:"3.453099789":MULTPI
Out: EC=0 FI=0 SL=1 RL=Re16:"3.453099789":MULTPI RX=Re16:"10.951827999657763014974112684628139432600036141997959332555989"

In:  AM=GRAD FI=0 SL=0 RY=LonI:"2" RX=Re16:"3.453099789":MULTPI
Out: EC=0 FI=0 SL=1 RL=Re16:"3.453099789":MULTPI RX=Re16:"10.951827999657763014974112684628139432600036141997959332555989"

In:  AM=RAD FI=0 SL=0 RY=LonI:"2" RX=Re16:"3.453099789":MULTPI
Out: EC=0 FI=0 SL=1 RL=Re16:"3.453099789":MULTPI RX=Re16:"10.951827999657763014974112684628139432600036141997959332555989"

In:  AM=MULTPI FI=0 SL=0 RY=LonI:"2" RX=Re16:"3.453099789":MULTPI
Out: EC=0 FI=0 SL=1 RL=Re16:"3.453099789":MULTPI RX=Re16:"10.951827999657763014974112684628139432600036141997959332555989"

;=======================================
; Real16 ^ Long Integer --> Real16
;=======================================
In:  SL=0 NCSD=16 RY=Re16:"123.456" RX=LonI:"5"
Out: EC=0 FI=0 SL=1 RL=LonI:"5" RX=Re16:"28678802168.634497644363776"

In:  AM=DEG FI=0 SL=0 NCSD=16 RY=Re16:"123.4":DEG RX=LonI:"2"
Out: EC=0 FI=0 SL=1 RL=LonI:"2" RX=Re16:"15227.56"

In:  AM=DMS FI=0 SL=0 RY=Re16:"123.4":DEG RX=LonI:"2"
Out: EC=0 FI=0 SL=1 RL=LonI:"2" RX=Re16:"15227.56"

In:  AM=GRAD FI=0 SL=0 RY=Re16:"123.4":DEG RX=LonI:"2"
Out: EC=0 FI=0 SL=1 RL=LonI:"2" RX=Re16:"15227.56"

In:  AM=RAD FI=0 SL=0 RY=Re16:"123.4":DEG RX=LonI:"2"
Out: EC=0 FI=0 SL=1 RL=LonI:"2" RX=Re16:"15227.56"

In:  AM=MULTPI FI=0 SL=0 RY=Re16:"123.4":DEG RX=LonI:"2"
Out: EC=0 FI=0 SL=1 RL=LonI:"2" RX=Re16:"15227.56"

In:  AM=DEG FI=0 SL=0 RY=Re16:"123.453099":DMS RX=LonI:"2"
Out: EC=0 FI=0 SL=1 RL=LonI:"2" RX=Re16:"15240.667652703801"

In:  AM=DMS FI=0 SL=0 RY=Re16:"123.453099":DMS RX=LonI:"2"
Out: EC=0 FI=0 SL=1 RL=LonI:"2" RX=Re16:"15240.667652703801"

In:  AM=GRAD FI=0 SL=0 RY=Re16:"123.453099":DMS RX=LonI:"2"
Out: EC=0 FI=0 SL=1 RL=LonI:"2" RX=Re16:"15240.667652703801"

In:  AM=RAD FI=0 SL=0 RY=Re16:"123.453099":DMS RX=LonI:"2"
Out: EC=0 FI=0 SL=1 RL=LonI:"2" RX=Re16:"15240.667652703801"

In:  AM=MULTPI FI=0 SL=0 RY=Re16:"123.453099":DMS RX=LonI:"2"
Out: EC=0 FI=0 SL=1 RL=LonI:"2" RX=Re16:"15240.667652703801"

In:  AM=DEG FI=0 SL=0 RY=Re16:"123.453099":GRAD RX=LonI:"2"
Out: EC=0 FI=0 SL=1 RL=LonI:"2" RX=Re16:"15240.667652703801"

In:  AM=DMS FI=0 SL=0 RY=Re16:"123.453099":GRAD RX=LonI:"2"
Out: EC=0 FI=0 SL=1 RL=LonI:"2" RX=Re16:"15240.667652703801"

In:  AM=GRAD FI=0 SL=0 RY=Re16:"123.453099":GRAD RX=LonI:"2"
Out: EC=0 FI=0 SL=1 RL=LonI:"2" RX=Re16:"15240.667652703801"

In:  AM=RAD FI=0 SL=0 RY=Re16:"123.453099":GRAD RX=LonI:"2"
Out: EC=0 FI=0 SL=1 RL=LonI:"2" RX=Re16:"15240.667652703801"

In:  AM=MULTPI FI=0 SL=0 RY=Re16:"123.453099":GRAD RX=LonI:"2"
Out: EC=0 FI=0 SL=1 RL=LonI:"2" RX=Re16:"15240.667652703801"

In:  AM=DEG FI=0 SL=0 RY=Re16:"3.453099789":RAD RX=LonI:"2"
Out: EC=0 FI=0 SL=1 RL=LonI:"2" RX=Re16:"11.923898152791844521"

In:  AM=DMS FI=0 SL=0 RY=Re16:"3.453099789":RAD RX=LonI:"2"
Out: EC=0 FI=0 SL=1 RL=LonI:"2" RX=Re16:"11.923898152791844521"

In:  AM=GRAD FI=0 SL=0 RY=Re16:"3.453099789":RAD RX=LonI:"2"
Out: EC=0 FI=0 SL=1 RL=LonI:"2" RX=Re16:"11.923898152791844521"

In:  AM=RAD FI=0 SL=0 RY=Re16:"3.453099789":RAD RX=LonI:"2"
Out: EC=0 FI=0 SL=1 RL=LonI:"2" RX=Re16:"11.923898152791844521"

In:  AM=MULTPI FI=0 SL=0 RY=Re16:"3.453099789":RAD RX=LonI:"2"
Out: EC=0 FI=0 SL=1 RL=LonI:"2" RX=Re16:"11.923898152791844521"

In:  AM=DEG FI=0 SL=0 RY=Re16:"3.453099789":MULTPI RX=LonI:"2"
Out: EC=0 FI=0 SL=1 RL=LonI:"2" RX=Re16:"11.923898152791844521"

In:  AM=DMS FI=0 SL=0 RY=Re16:"3.453099789":MULTPI RX=LonI:"2"
Out: EC=0 FI=0 SL=1 RL=LonI:"2" RX=Re16:"11.923898152791844521"

In:  AM=GRAD FI=0 SL=0 RY=Re16:"3.453099789":MULTPI RX=LonI:"2"
Out: EC=0 FI=0 SL=1 RL=LonI:"2" RX=Re16:"11.923898152791844521"

In:  AM=RAD FI=0 SL=0 RY=Re16:"3.453099789":MULTPI RX=LonI:"2"
Out: EC=0 FI=0 SL=1 RL=LonI:"2" RX=Re16:"11.923898152791844521"

In:  AM=MULTPI FI=0 SL=0 RY=Re16:"3.453099789":MULTPI RX=LonI:"2"
Out: EC=0 FI=0 SL=1 RL=LonI:"2" RX=Re16:"11.923898152791844521"



;=======================================
; Long Integer ^ Complex16 --> Complex16
;=======================================
In:  SL=0 NCSD=16 RY=LonI:"4" RX=Co16:"123.456 i -6.78"
Out: EC=0 FI=1 SL=1 RL=Co16:"123.456 i -6.78" RX=Co16:"-2.1270359272913709495732303449788920035031030932498551228616922e+74 i -5.4681528046893919212293733478777332266384627784034876004792665e+72"

;=======================================
; Complex16 ^ Long Integer --> Complex16
;=======================================
In:  SL=0 FI=0 NCSD=16 RY=Co16:"123.456 i -6.78" RX=LonI:"4"
Out: EC=0 FI=1 SL=1 RL=LonI:"4" RX=Co16:"228098165.178415677696 i -50876176.77758472192"


;=======================================
; Long Integer ^ Time
;=======================================

;=======================================
; Time ^ Long Integer
;=======================================



;=======================================
; Long Integer ^ Date
;=======================================

;=======================================
; Date ^ Long Integer
;=======================================



;=======================================
; Long Integer ^ String --> Error24
;=======================================
In:  SL=0 RY=LonI:"12540" RX=Stri:"String test"
Out: EC=24 SL=0 RX=Stri:"String test"

;=======================================
; String ^ Long Integer --> Error24
;=======================================
In:  SL=0 RY=Stri:"String test " RX=LonI:"-1234"
Out: EC=24 SL=0 RX=LonI:"-1234"



;=======================================
; Long Integer ^ Real16 Matrix
;=======================================

;=======================================
; Real16 Matrix ^ Long Integer
;=======================================



;=======================================
; Long Integer ^ Complex16 Matrix
;=======================================

;=======================================
; Complex16 Matrix ^ Long Integer
;=======================================



;=======================================
; Long Integer ^ Short Integer --> Long Integer
;=======================================
In:  SL=0 FI=0 IM=2COMPL RY=LonI:"1234" RX=ShoI:"24#8" ;RX=20
Out: EC=0 FI=0 SL=1 RL=ShoI:"24#8" RX=LonI:"67035243914691711794360082394262505332216263021359359696306176"

In:  SL=0 RY=LonI:"-2" RX=ShoI:"3#4"
Out: EC=0 FI=0 SL=1 RL=ShoI:"3#4" RX=LonI:"-8"

In:  SL=0 RY=LonI:"-2" RX=ShoI:"4#5"
Out: EC=0 FI=0 SL=1 RL=ShoI:"4#5" RX=LonI:"16"

In:  SL=0 RY=LonI:"-2" RX=ShoI:"5#6"
Out: EC=0 FI=0 SL=1 RL=ShoI:"5#6" RX=LonI:"-32"

;=======================================
; Short Integer ^ Long Integer --> Long Integer
;=======================================
In:  SL=0 FI=0 IM=2COMPL RY=ShoI:"45247#8" RX=LonI:"12" ;RY=19111
Out: EC=0 FI=0 SL=1 RL=LonI:"12" RX=LonI:"2373564019290369461237013706532355389404645845877921"

In:  SL=0 RY=ShoI:"-2#4" RX=LonI:"3"
Out: EC=0 FI=0 SL=1 RL=LonI:"3" RX=LonI:"-8"

In:  SL=0 RY=ShoI:"-2#5" RX=LonI:"4"
Out: EC=0 FI=0 SL=1 RL=LonI:"4" RX=LonI:"16"

In:  SL=0 RY=ShoI:"-2#6" RX=LonI:"5"
Out: EC=0 FI=0 SL=1 RL=LonI:"5" RX=LonI:"-32"



;=======================================
; Long Integer ^ Real34 --> Real34
;=======================================
In:  SL=0 NCSD=34 RY=LonI:"5" RX=Re34:"123.456"
Out: EC=0 FI=0 SL=1 RL=Re34:"123.456" RX=Re34:"1.9590289562203547661849732382478881082061206314350810594214883e+86"

In:  AM=DEG FI=0 SL=0 NCSD=34 RY=LonI:"2" RX=Re34:"123.4":DEG
Out: EC=0 FI=0 SL=1 RL=Re34:"123.4":DEG RX=Re34:"14031414845271966722579997222050159552.088081736449456307453811"

In:  AM=DMS FI=0 SL=0 RY=LonI:"2" RX=Re34:"123.4":DEG
Out: EC=0 FI=0 SL=1 RL=Re34:"123.4":DEG RX=Re34:"14031414845271966722579997222050159552.088081736449456307453811"

In:  AM=GRAD FI=0 SL=0 RY=LonI:"2" RX=Re34:"123.4":DEG
Out: EC=0 FI=0 SL=1 RL=Re34:"123.4":DEG RX=Re34:"14031414845271966722579997222050159552.088081736449456307453811"

In:  AM=RAD FI=0 SL=0 RY=LonI:"2" RX=Re34:"123.4":DEG
Out: EC=0 FI=0 SL=1 RL=Re34:"123.4":DEG RX=Re34:"14031414845271966722579997222050159552.088081736449456307453811"

In:  AM=MULTPI FI=0 SL=0 RY=LonI:"2" RX=Re34:"123.4":DEG
Out: EC=0 FI=0 SL=1 RL=Re34:"123.4":DEG RX=Re34:"14031414845271966722579997222050159552.088081736449456307453811"

In:  AM=DEG FI=0 SL=0 RY=LonI:"2" RX=Re34:"123.453099":DMS
Out: EC=0 FI=0 SL=1 RL=Re34:"123.453099":DMS RX=Re34:"14557468420784632186278091172514191357.60714127587936564875537"

In:  AM=DMS FI=0 SL=0 RY=LonI:"2" RX=Re34:"123.453099":DMS
Out: EC=0 FI=0 SL=1 RL=Re34:"123.453099":DMS RX=Re34:"14557468420784632186278091172514191357.60714127587936564875537"

In:  AM=GRAD FI=0 SL=0 RY=LonI:"2" RX=Re34:"123.453099":DMS
Out: EC=0 FI=0 SL=1 RL=Re34:"123.453099":DMS RX=Re34:"14557468420784632186278091172514191357.60714127587936564875537"

In:  AM=RAD FI=0 SL=0 RY=LonI:"2" RX=Re34:"123.453099":DMS
Out: EC=0 FI=0 SL=1 RL=Re34:"123.453099":DMS RX=Re34:"14557468420784632186278091172514191357.60714127587936564875537"

In:  AM=MULTPI FI=0 SL=0 RY=LonI:"2" RX=Re34:"123.453099":DMS
Out: EC=0 FI=0 SL=1 RL=Re34:"123.453099":DMS RX=Re34:"14557468420784632186278091172514191357.60714127587936564875537"

In:  AM=DEG FI=0 SL=0 RY=LonI:"2" RX=Re34:"123.453099":GRAD
Out: EC=0 FI=0 SL=1 RL=Re34:"123.453099":GRAD RX=Re34:"14557468420784632186278091172514191357.60714127587936564875537"

In:  AM=DMS FI=0 SL=0 RY=LonI:"2" RX=Re34:"123.453099":GRAD
Out: EC=0 FI=0 SL=1 RL=Re34:"123.453099":GRAD RX=Re34:"14557468420784632186278091172514191357.60714127587936564875537"

In:  AM=GRAD FI=0 SL=0 RY=LonI:"2" RX=Re34:"123.453099":GRAD
Out: EC=0 FI=0 SL=1 RL=Re34:"123.453099":GRAD RX=Re34:"14557468420784632186278091172514191357.60714127587936564875537"

In:  AM=RAD FI=0 SL=0 RY=LonI:"2" RX=Re34:"123.453099":GRAD
Out: EC=0 FI=0 SL=1 RL=Re34:"123.453099":GRAD RX=Re34:"14557468420784632186278091172514191357.60714127587936564875537"

In:  AM=MULTPI FI=0 SL=0 RY=LonI:"2" RX=Re34:"123.453099":GRAD
Out: EC=0 FI=0 SL=1 RL=Re34:"123.453099":GRAD RX=Re34:"14557468420784632186278091172514191357.60714127587936564875537"

In:  AM=DEG FI=0 SL=0 RY=LonI:"2" RX=Re34:"3.453099789":RAD
Out: EC=0 FI=0 SL=1 RL=Re34:"3.453099789":RAD RX=Re34:"10.951827999657763014974112684628139432600036141997959332555989"

In:  AM=DMS FI=0 SL=0 RY=LonI:"2" RX=Re34:"3.453099789":RAD
Out: EC=0 FI=0 SL=1 RL=Re34:"3.453099789":RAD RX=Re34:"10.951827999657763014974112684628139432600036141997959332555989"

In:  AM=GRAD FI=0 SL=0 RY=LonI:"2" RX=Re34:"3.453099789":RAD
Out: EC=0 FI=0 SL=1 RL=Re34:"3.453099789":RAD RX=Re34:"10.951827999657763014974112684628139432600036141997959332555989"

In:  AM=RAD FI=0 SL=0 RY=LonI:"2" RX=Re34:"3.453099789":RAD
Out: EC=0 FI=0 SL=1 RL=Re34:"3.453099789":RAD RX=Re34:"10.951827999657763014974112684628139432600036141997959332555989"

In:  AM=MULTPI FI=0 SL=0 RY=LonI:"2" RX=Re34:"3.453099789":RAD
Out: EC=0 FI=0 SL=1 RL=Re34:"3.453099789":RAD RX=Re34:"10.951827999657763014974112684628139432600036141997959332555989"

In:  AM=DEG FI=0 SL=0 RY=LonI:"2" RX=Re34:"3.453099789":MULTPI
Out: EC=0 FI=0 SL=1 RL=Re34:"3.453099789":MULTPI RX=Re34:"10.951827999657763014974112684628139432600036141997959332555989"

In:  AM=DMS FI=0 SL=0 RY=LonI:"2" RX=Re34:"3.453099789":MULTPI
Out: EC=0 FI=0 SL=1 RL=Re34:"3.453099789":MULTPI RX=Re34:"10.951827999657763014974112684628139432600036141997959332555989"

In:  AM=GRAD FI=0 SL=0 RY=LonI:"2" RX=Re34:"3.453099789":MULTPI
Out: EC=0 FI=0 SL=1 RL=Re34:"3.453099789":MULTPI RX=Re34:"10.951827999657763014974112684628139432600036141997959332555989"

In:  AM=RAD FI=0 SL=0 RY=LonI:"2" RX=Re34:"3.453099789":MULTPI
Out: EC=0 FI=0 SL=1 RL=Re34:"3.453099789":MULTPI RX=Re34:"10.951827999657763014974112684628139432600036141997959332555989"

In:  AM=MULTPI FI=0 SL=0 RY=LonI:"2" RX=Re34:"3.453099789":MULTPI
Out: EC=0 FI=0 SL=1 RL=Re34:"3.453099789":MULTPI RX=Re34:"10.951827999657763014974112684628139432600036141997959332555989"

;=======================================
; Real34 ^ Long Integer --> Real34
;=======================================
In:  SL=0 NCSD=34 RY=Re34:"123.456" RX=LonI:"5"
Out: EC=0 FI=0 SL=1 RL=LonI:"5" RX=Re34:"28678802168.634497644363776"

In:  AM=DEG FI=0 SL=0 NCSD=34 RY=Re34:"123.4":DEG RX=LonI:"2"
Out: EC=0 FI=0 SL=1 RL=LonI:"2" RX=Re34:"15227.56"

In:  AM=DMS FI=0 SL=0 RY=Re34:"123.4":DEG RX=LonI:"2"
Out: EC=0 FI=0 SL=1 RL=LonI:"2" RX=Re34:"15227.56"

In:  AM=GRAD FI=0 SL=0 RY=Re34:"123.4":DEG RX=LonI:"2"
Out: EC=0 FI=0 SL=1 RL=LonI:"2" RX=Re34:"15227.56"

In:  AM=RAD FI=0 SL=0 RY=Re34:"123.4":DEG RX=LonI:"2"
Out: EC=0 FI=0 SL=1 RL=LonI:"2" RX=Re34:"15227.56"

In:  AM=MULTPI FI=0 SL=0 RY=Re34:"123.4":DEG RX=LonI:"2"
Out: EC=0 FI=0 SL=1 RL=LonI:"2" RX=Re34:"15227.56"

In:  AM=DEG FI=0 SL=0 RY=Re34:"123.453099":DMS RX=LonI:"2"
Out: EC=0 FI=0 SL=1 RL=LonI:"2" RX=Re34:"15240.667652703801"

In:  AM=DMS FI=0 SL=0 RY=Re34:"123.453099":DMS RX=LonI:"2"
Out: EC=0 FI=0 SL=1 RL=LonI:"2" RX=Re34:"15240.667652703801"

In:  AM=GRAD FI=0 SL=0 RY=Re34:"123.453099":DMS RX=LonI:"2"
Out: EC=0 FI=0 SL=1 RL=LonI:"2" RX=Re34:"15240.667652703801"

In:  AM=RAD FI=0 SL=0 RY=Re34:"123.453099":DMS RX=LonI:"2"
Out: EC=0 FI=0 SL=1 RL=LonI:"2" RX=Re34:"15240.667652703801"

In:  AM=MULTPI FI=0 SL=0 RY=Re34:"123.453099":DMS RX=LonI:"2"
Out: EC=0 FI=0 SL=1 RL=LonI:"2" RX=Re34:"15240.667652703801"

In:  AM=DEG FI=0 SL=0 RY=Re34:"123.453099":GRAD RX=LonI:"2"
Out: EC=0 FI=0 SL=1 RL=LonI:"2" RX=Re34:"15240.667652703801"

In:  AM=DMS FI=0 SL=0 RY=Re34:"123.453099":GRAD RX=LonI:"2"
Out: EC=0 FI=0 SL=1 RL=LonI:"2" RX=Re34:"15240.667652703801"

In:  AM=GRAD FI=0 SL=0 RY=Re34:"123.453099":GRAD RX=LonI:"2"
Out: EC=0 FI=0 SL=1 RL=LonI:"2" RX=Re34:"15240.667652703801"

In:  AM=RAD FI=0 SL=0 RY=Re34:"123.453099":GRAD RX=LonI:"2"
Out: EC=0 FI=0 SL=1 RL=LonI:"2" RX=Re34:"15240.667652703801"

In:  AM=MULTPI FI=0 SL=0 RY=Re34:"123.453099":GRAD RX=LonI:"2"
Out: EC=0 FI=0 SL=1 RL=LonI:"2" RX=Re34:"15240.667652703801"

In:  AM=DEG FI=0 SL=0 RY=Re34:"3.453099789":RAD RX=LonI:"2"
Out: EC=0 FI=0 SL=1 RL=LonI:"2" RX=Re34:"11.923898152791844521"

In:  AM=DMS FI=0 SL=0 RY=Re34:"3.453099789":RAD RX=LonI:"2"
Out: EC=0 FI=0 SL=1 RL=LonI:"2" RX=Re34:"11.923898152791844521"

In:  AM=GRAD FI=0 SL=0 RY=Re34:"3.453099789":RAD RX=LonI:"2"
Out: EC=0 FI=0 SL=1 RL=LonI:"2" RX=Re34:"11.923898152791844521"

In:  AM=RAD FI=0 SL=0 RY=Re34:"3.453099789":RAD RX=LonI:"2"
Out: EC=0 FI=0 SL=1 RL=LonI:"2" RX=Re34:"11.923898152791844521"

In:  AM=MULTPI FI=0 SL=0 RY=Re34:"3.453099789":RAD RX=LonI:"2"
Out: EC=0 FI=0 SL=1 RL=LonI:"2" RX=Re34:"11.923898152791844521"

In:  AM=DEG FI=0 SL=0 RY=Re34:"3.453099789":MULTPI RX=LonI:"2"
Out: EC=0 FI=0 SL=1 RL=LonI:"2" RX=Re34:"11.923898152791844521"

In:  AM=DMS FI=0 SL=0 RY=Re34:"3.453099789":MULTPI RX=LonI:"2"
Out: EC=0 FI=0 SL=1 RL=LonI:"2" RX=Re34:"11.923898152791844521"

In:  AM=GRAD FI=0 SL=0 RY=Re34:"3.453099789":MULTPI RX=LonI:"2"
Out: EC=0 FI=0 SL=1 RL=LonI:"2" RX=Re34:"11.923898152791844521"

In:  AM=RAD FI=0 SL=0 RY=Re34:"3.453099789":MULTPI RX=LonI:"2"
Out: EC=0 FI=0 SL=1 RL=LonI:"2" RX=Re34:"11.923898152791844521"

In:  AM=MULTPI FI=0 SL=0 RY=Re34:"3.453099789":MULTPI RX=LonI:"2"
Out: EC=0 FI=0 SL=1 RL=LonI:"2" RX=Re34:"11.923898152791844521"



;=======================================
; Long Integer ^ Complex34 --> Complex34
;=======================================
In:  SL=0 NCSD=34 RY=LonI:"4" RX=Co34:"123.456 i -6.78"
Out: EC=0 FI=1 SL=1 RL=Co34:"123.456 i -6.78" RX=Co34:"-2.1270359272913709495732303449788920035031030932498551228616922e+74 i -5.4681528046893919212293733478777332266384627784034876004792665e+72"

;=======================================
; Complex34 ^ Long Integer --> Complex34
;=======================================
In:  SL=0 FI=0 NCSD=34 RY=Co34:"123.456 i -6.78" RX=LonI:"4"
Out: EC=0 FI=1 SL=1 RL=LonI:"4" RX=Co34:"228098165.178415677696 i -50876176.77758472192"
