;*************************************************************
;*************************************************************
;**                                                         **
;**                       DATE - ...                        **
;**                       ... - DATE                        **
;**                                                         **
;*************************************************************
;*************************************************************
In: FD=0 FI=0 SD=0 RM=0 IM=2compl SS=4 WS=64
Func: fnSubtract



;==================================================================
; Date - Long Integer  see in subtraction_longInteger.txt
; Date - Real16        see in subtraction_real16.txt
; Date - Complex16     see in subtraction_complex16.txt
; Date - Time          see in subtraction_time.txt
;==================================================================



;=======================================
; Date - Date
;=======================================



;=======================================
; Date - String
;=======================================

;=======================================
; String - Date
;=======================================



;=======================================
; Date - Real16 Matrix
;=======================================

;=======================================
; Real16 Matrix - Date
;=======================================



;=======================================
; Date - Complex16 Matrix
;=======================================

;=======================================
; Complex16 Matrix - Date
;=======================================



;=======================================
; Date - Short Integer
;=======================================

;=======================================
; Short Integer - Date
;=======================================



;=======================================
; Date - Real34
;=======================================

;=======================================
; Real34 - Date
;=======================================



;=======================================
; Date - Complex34
;=======================================

;=======================================
; Complex34 - Date
;=======================================
